concept,monthly_quantity,annual_quantity
Administrador,200000,2400000
Revisor Fiscal,400000,4800000
Asesoria Legal,200000,2400000
Seguridad Privada,200000,2400000
Aseo – Servicios Generales,200000,2400000
Salvavidas,200000,2400000
Servicio de Energia,200000,2400000
Servicio Telefonico,200000,2400000
Jardineria y Abonos,200000,2400000
Elementos de Aseo y Cafeteria,200000,2400000
"Correo, Papelería y fotocopias",200000,2400000
Bombillos y Flores,200000,2400000
Mantenimiento de ascensores,200000,2400000
Mantenimientos Preventivos Motobombas,200000,2400000
Mantenimiento Piscina - Implementos,200000,2400000
Mantenimiento circuito C.C.T.V,200000,2400000
Mantenimiento Porton Electrico,200000,2400000
Mantenimiento Citofonos/Telefono,200000,2400000
Mantenimiento Anual Planta Elec.,200000,2400000
Mantenimiento y Reparaciones Locativas Imprevistos,200000,2400000
Mantenimiento de Extintores,200000,2400000
"Transportes, Taxis y acarreos",200000,2400000
Pruebas laboratorio Piscina,200000,2400000
Gastos Bancarios - Impuestos asumidos,200000,2400000
Compra de camaras-monitores-ventiladores,200000,2400000