apartments,email,last_name,name,phone_number
T01PA01,hupton@gmail.com,Hermina,Upton,573209465370
T01PA01,armandok@gmail.com,Armando,Klocko,573209465370
T01PA01,nayelik@gmail.com,Nayeli,Kovacek,573272991586
T01PA02,aber@gmail.com,Abe,Rosenbaum,573073652339
T01PA03,vbrakus@gmail.com,Vincenza,Brakus,573040941526
T01PA04,kossenola@gmail.com,Enola,Koss,573169829774
T01PA04,tremblay@gmail.com,Levi,Tremblay,573062051507
T01PA04,cpf@gmail.com,Cydney,Pfeffer,573112146639
