area,registration_tag,name,parking_number,coefficient
61.3,100100101,T01PA01,1,2.22
61.3,100100102,T01PA02,2,2.22
61.3,100100102,T01PA03,3,2.22
61.3,100100103,T01PA04,4,2.22
61.3,100100103,T01PA05,5,2.22
61.3,100100104,T01PA06,6,2.22
