apartments,address,email,last_name,name,phone_number,identification,has_pet,is_inhabitant
"T01PA01,T01PA02","Carrera 26 # 18 - 64, Torre 1 , PA01",herminaupton@gmail.com,Hermina,Upton,573209465370,1098771587,Si,Si
T01PA03,"Carrera 26 # 18 - 64, Torre 1 , PA03",nayeli@gmail.com,Nayeli,Kovacek,573272991586,1098101517,No,Si
T01PA04,"Carrera 26 # 18 - 64, Torre 1 , PA04",aberosenbaum@gmail.com,Abe,Rosenbaum,573073652339,1098434586,No,Si
T01PA05,"Carrera 26 # 18 - 64, Torre 1 , PA05",chane@gmail.com,Christelle,Hane,573193512123,1098036718,No,Si
T01PA06,"Carrera 26 # 18 - 64, Torre 1 , PA06",brakusv@gmail.com,Vincenza,Brakus,573040941526,1098432194,Si,Si
T01PA07,"Carrera 50 # 28 - 64, Torre 9 , AP07",mateoh@gmail.com,Mateo,Hirthe,573284498391,1098153587,No,No
